1		0		0		0
2		10	0		0
3		20	0		0
4		30	0		0
5		0		10	0
6		10	10	0
7		20	10	0
8		30	10	0
9		0		20	0
10	10	20	0
11	20	20	0
12	30	20	0
13	0		30	0
14	10	30	0
15	20	30	0
16	30	30	0
17	0		0		10
18	10	0		10
19	20	0		10
20	30	0		10
21	0		10	10
22	10	10	10
23	20	10	10
24	30	10	10
25	0		20	10
26	10	20	10
27	20	20	10
28	30	20	10
29	0		30	10
30	10	30	10
31	20	30	10
32	30	30	10
33	0		0		20
34	10	0		20
35	20	0		20
36	30	0		20
37	0		10	20
38	10	10	20
39	20	10	20
40	30	10	20
41	0		20	20
42	10	20	20
43	20	20	20
44	30	20	20
45	0		30	20
46	10	30	20
47	20	30	20
48	30	30	20
49	0		0		30
50	10	0		30
51	20	0		30
52	30	0		30
53	0		10	30
54	10	10	30
55	20	10	30
56	30	10	30
57	0		20	30
58	10	20	30
59	20	20	30
60	30	20	30
61	0		30	30
62	10	30	30
63	20	30	30
64	30	30	30
